…
| Etablissement                | from     | to       | note                                                                     |
|:-----------------------------|:---------|:---------|:-------------------------------------------------------------------------|
| Nantes Université            | 0440984F | 0442953W | Changement de statut de l’Université de Nantes au 1er janvier 2022       |
| PSL                          | 0755700N | 0756036D | Potentiel changement de périmètre en 2019                                |
| Université de Montpellier    | 0342321N | 0342490X | Changement de statut en 2021                                             |
| Université Clermont Auvergne | 0632035V | 0632084Y | Changement de statut en 2020                                             |
| Université de Lille          | 0597065J | 0597239Y | Changement de statut en 2020 et possibles changements de périmètre avant |
| Université de Grenoble Alpes | 0383493R | 0383546Y | Changement de statut en 2019 et possibles changements de périmètre avant |

</details>

### Vérification des données manquantes après correction

    ## Warning in fix_uai(., correspondances.uai): Duplicates detected during fix_uai. Keeping first. 
    ## # A tibble: 54 × 10
    ##    UAI      Rentrée dupe_count Etablissement  Type  kpi.BIA.P.effec… kpi.BIA.S.A
    ##    <chr>    <chr>        <int> <chr>          <chr>            <int>       <int>
    ##  1 0342490X 2015             2 Université de… Univ…             1364         348
    ##  2 0342490X 2015             2 Université de… Univ…              890         285
    ##  3 0342490X 2016             2 Université de… Univ…             1376         366
    ##  4 0342490X 2016             2 Université de… Univ…              890         280
    ##  5 0342490X 2017             2 Université de… Univ…             1349         360
    ##  6 0342490X 2017             2 Université de… Univ…              995         319
    ##  7 0342490X 2018             2 Université de… Univ…             1369         373
    ##  8 0342490X 2018             2 Université de… Univ…             1009         331
    ##  9 0342490X 2019             2 Université de… Univ…             1365         383
    ## 10 0342490X 2019             2 Université de… Univ…             1092         403
    ## # … with 44 more rows, and 3 more variables: kpi.BIA.S.B <int>,
    ## #   kpi.BIA.S.C <int>, kpi.BIA.S.titulaires <int>
…
